{
  "project_info": {
    "project_number": "225948345057",
    "firebase_url": "https://gcp-tutorial-252202.firebaseio.com",
    "project_id": "gcp-tutorial-252202",
    "storage_bucket": "gcp-tutorial-252202.appspot.com"
  },
  "client": [
    {
      "client_info": {
        "mobilesdk_app_id": "1:225948345057:android:f8cb569afedc5d2929cda0",
        "android_client_info": {
          "package_name": "polinema.mi.appvx00e"
        }
      },
      "oauth_client": [
        {
          "client_id": "225948345057-3aqrvmlmp16rdlvghb7tr7s25id8vs10.apps.googleusercontent.com",
          "client_type": 3
        }
      ],
      "api_key": [
        {
          "current_key": "AIzaSyBRNOswyBYTrwK3v3u8Sw07eSDaP8UlOSs"
        }
      ],
      "services": {
        "appinvite_service": {
          "other_platform_oauth_client": [
            {
              "client_id": "225948345057-3aqrvmlmp16rdlvghb7tr7s25id8vs10.apps.googleusercontent.com",
              "client_type": 3
            }
          ]
        }
      }
    },
    {
      "client_info": {
        "mobilesdk_app_id": "1:225948345057:android:fb9ce2261c062d2e29cda0",
        "android_client_info": {
          "package_name": "polinema.mi.appvx0d"
        }
      },
      "oauth_client": [
        {
          "client_id": "225948345057-3aqrvmlmp16rdlvghb7tr7s25id8vs10.apps.googleusercontent.com",
          "client_type": 3
        }
      ],
      "api_key": [
        {
          "current_key": "AIzaSyBRNOswyBYTrwK3v3u8Sw07eSDaP8UlOSs"
        }
      ],
      "services": {
        "appinvite_service": {
          "other_platform_oauth_client": [
            {
              "client_id": "225948345057-3aqrvmlmp16rdlvghb7tr7s25id8vs10.apps.googleusercontent.com",
              "client_type": 3
            }
          ]
        }
      }
    }
  ],
  "configuration_version": "1"
}